^T:\DEVELOPMENT\C++\MOVIE\MOVIE\RELEASE\MOVIE.OBJ|T:\DEVELOPMENT\C++\MOVIE\MOVIE\RELEASE\PCH.OBJ
C:\PROGRAM FILES (X86)\WINDOWS KITS\10\LIB\10.0.18362.0\UM\X86\KERNEL32.LIB
C:\PROGRAM FILES (X86)\WINDOWS KITS\10\LIB\10.0.18362.0\UM\X86\USER32.LIB
C:\PROGRAM FILES (X86)\WINDOWS KITS\10\LIB\10.0.18362.0\UM\X86\GDI32.LIB
C:\PROGRAM FILES (X86)\WINDOWS KITS\10\LIB\10.0.18362.0\UM\X86\WINSPOOL.LIB
C:\PROGRAM FILES (X86)\WINDOWS KITS\10\LIB\10.0.18362.0\UM\X86\COMDLG32.LIB
C:\PROGRAM FILES (X86)\WINDOWS KITS\10\LIB\10.0.18362.0\UM\X86\ADVAPI32.LIB
C:\PROGRAM FILES (X86)\WINDOWS KITS\10\LIB\10.0.18362.0\UM\X86\SHELL32.LIB
C:\PROGRAM FILES (X86)\WINDOWS KITS\10\LIB\10.0.18362.0\UM\X86\OLE32.LIB
C:\PROGRAM FILES (X86)\WINDOWS KITS\10\LIB\10.0.18362.0\UM\X86\OLEAUT32.LIB
C:\PROGRAM FILES (X86)\WINDOWS KITS\10\LIB\10.0.18362.0\UM\X86\UUID.LIB
C:\PROGRAM FILES (X86)\WINDOWS KITS\10\LIB\10.0.18362.0\UM\X86\ODBC32.LIB
C:\PROGRAM FILES (X86)\WINDOWS KITS\10\LIB\10.0.18362.0\UM\X86\ODBCCP32.LIB
T:\DEVELOPMENT\C++\VCPKG\INSTALLED\X86-WINDOWS\LIB\BOOST_ATOMIC-VC140-MT.LIB
T:\DEVELOPMENT\C++\VCPKG\INSTALLED\X86-WINDOWS\LIB\BOOST_CHRONO-VC140-MT.LIB
T:\DEVELOPMENT\C++\VCPKG\INSTALLED\X86-WINDOWS\LIB\BOOST_CONTAINER-VC140-MT.LIB
T:\DEVELOPMENT\C++\VCPKG\INSTALLED\X86-WINDOWS\LIB\BOOST_CONTEXT-VC140-MT.LIB
T:\DEVELOPMENT\C++\VCPKG\INSTALLED\X86-WINDOWS\LIB\BOOST_CONTRACT-VC140-MT.LIB
T:\DEVELOPMENT\C++\VCPKG\INSTALLED\X86-WINDOWS\LIB\BOOST_COROUTINE-VC140-MT.LIB
T:\DEVELOPMENT\C++\VCPKG\INSTALLED\X86-WINDOWS\LIB\BOOST_DATE_TIME-VC140-MT.LIB
T:\DEVELOPMENT\C++\VCPKG\INSTALLED\X86-WINDOWS\LIB\BOOST_EXCEPTION-VC140-MT.LIB
T:\DEVELOPMENT\C++\VCPKG\INSTALLED\X86-WINDOWS\LIB\BOOST_FIBER-VC140-MT.LIB
T:\DEVELOPMENT\C++\VCPKG\INSTALLED\X86-WINDOWS\LIB\BOOST_FILESYSTEM-VC140-MT.LIB
T:\DEVELOPMENT\C++\VCPKG\INSTALLED\X86-WINDOWS\LIB\BOOST_GRAPH-VC140-MT.LIB
T:\DEVELOPMENT\C++\VCPKG\INSTALLED\X86-WINDOWS\LIB\BOOST_IOSTREAMS-VC140-MT.LIB
T:\DEVELOPMENT\C++\VCPKG\INSTALLED\X86-WINDOWS\LIB\BOOST_LOCALE-VC140-MT.LIB
T:\DEVELOPMENT\C++\VCPKG\INSTALLED\X86-WINDOWS\LIB\BOOST_LOG-VC140-MT.LIB
T:\DEVELOPMENT\C++\VCPKG\INSTALLED\X86-WINDOWS\LIB\BOOST_LOG_SETUP-VC140-MT.LIB
T:\DEVELOPMENT\C++\VCPKG\INSTALLED\X86-WINDOWS\LIB\BOOST_MATH_C99-VC140-MT.LIB
T:\DEVELOPMENT\C++\VCPKG\INSTALLED\X86-WINDOWS\LIB\BOOST_MATH_C99F-VC140-MT.LIB
T:\DEVELOPMENT\C++\VCPKG\INSTALLED\X86-WINDOWS\LIB\BOOST_MATH_C99L-VC140-MT.LIB
T:\DEVELOPMENT\C++\VCPKG\INSTALLED\X86-WINDOWS\LIB\BOOST_MATH_TR1-VC140-MT.LIB
T:\DEVELOPMENT\C++\VCPKG\INSTALLED\X86-WINDOWS\LIB\BOOST_MATH_TR1F-VC140-MT.LIB
T:\DEVELOPMENT\C++\VCPKG\INSTALLED\X86-WINDOWS\LIB\BOOST_MATH_TR1L-VC140-MT.LIB
T:\DEVELOPMENT\C++\VCPKG\INSTALLED\X86-WINDOWS\LIB\BOOST_PROGRAM_OPTIONS-VC140-MT.LIB
T:\DEVELOPMENT\C++\VCPKG\INSTALLED\X86-WINDOWS\LIB\BOOST_PYTHON37-VC140-MT.LIB
T:\DEVELOPMENT\C++\VCPKG\INSTALLED\X86-WINDOWS\LIB\BOOST_RANDOM-VC140-MT.LIB
T:\DEVELOPMENT\C++\VCPKG\INSTALLED\X86-WINDOWS\LIB\BOOST_REGEX-VC140-MT.LIB
T:\DEVELOPMENT\C++\VCPKG\INSTALLED\X86-WINDOWS\LIB\BOOST_SERIALIZATION-VC140-MT.LIB
T:\DEVELOPMENT\C++\VCPKG\INSTALLED\X86-WINDOWS\LIB\BOOST_STACKTRACE_NOOP-VC140-MT.LIB
T:\DEVELOPMENT\C++\VCPKG\INSTALLED\X86-WINDOWS\LIB\BOOST_STACKTRACE_WINDBG-VC140-MT.LIB
T:\DEVELOPMENT\C++\VCPKG\INSTALLED\X86-WINDOWS\LIB\BOOST_STACKTRACE_WINDBG_CACHED-VC140-MT.LIB
T:\DEVELOPMENT\C++\VCPKG\INSTALLED\X86-WINDOWS\LIB\BOOST_SYSTEM-VC140-MT.LIB
T:\DEVELOPMENT\C++\VCPKG\INSTALLED\X86-WINDOWS\LIB\BOOST_THREAD-VC140-MT.LIB
T:\DEVELOPMENT\C++\VCPKG\INSTALLED\X86-WINDOWS\LIB\BOOST_TIMER-VC140-MT.LIB
T:\DEVELOPMENT\C++\VCPKG\INSTALLED\X86-WINDOWS\LIB\BOOST_TYPE_ERASURE-VC140-MT.LIB
T:\DEVELOPMENT\C++\VCPKG\INSTALLED\X86-WINDOWS\LIB\BOOST_UNIT_TEST_FRAMEWORK-VC140-MT.LIB
T:\DEVELOPMENT\C++\VCPKG\INSTALLED\X86-WINDOWS\LIB\BOOST_WAVE-VC140-MT.LIB
T:\DEVELOPMENT\C++\VCPKG\INSTALLED\X86-WINDOWS\LIB\BOOST_WSERIALIZATION-VC140-MT.LIB
T:\DEVELOPMENT\C++\VCPKG\INSTALLED\X86-WINDOWS\LIB\BZ2.LIB
T:\DEVELOPMENT\C++\VCPKG\INSTALLED\X86-WINDOWS\LIB\FLAC++.LIB
T:\DEVELOPMENT\C++\VCPKG\INSTALLED\X86-WINDOWS\LIB\FLAC.LIB
T:\DEVELOPMENT\C++\VCPKG\INSTALLED\X86-WINDOWS\LIB\ICUDT.LIB
T:\DEVELOPMENT\C++\VCPKG\INSTALLED\X86-WINDOWS\LIB\ICUIN.LIB
T:\DEVELOPMENT\C++\VCPKG\INSTALLED\X86-WINDOWS\LIB\ICUIO.LIB
T:\DEVELOPMENT\C++\VCPKG\INSTALLED\X86-WINDOWS\LIB\ICUTU.LIB
T:\DEVELOPMENT\C++\VCPKG\INSTALLED\X86-WINDOWS\LIB\ICUUC.LIB
T:\DEVELOPMENT\C++\VCPKG\INSTALLED\X86-WINDOWS\LIB\LIBCURL.LIB
T:\DEVELOPMENT\C++\VCPKG\INSTALLED\X86-WINDOWS\LIB\LIBEAY32.LIB
T:\DEVELOPMENT\C++\VCPKG\INSTALLED\X86-WINDOWS\LIB\LZMA.LIB
T:\DEVELOPMENT\C++\VCPKG\INSTALLED\X86-WINDOWS\LIB\MAD.LIB
T:\DEVELOPMENT\C++\VCPKG\INSTALLED\X86-WINDOWS\LIB\OGG.LIB
T:\DEVELOPMENT\C++\VCPKG\INSTALLED\X86-WINDOWS\LIB\PYTHON37.LIB
T:\DEVELOPMENT\C++\VCPKG\INSTALLED\X86-WINDOWS\LIB\RSYNC.LIB
T:\DEVELOPMENT\C++\VCPKG\INSTALLED\X86-WINDOWS\LIB\SDL.LIB
T:\DEVELOPMENT\C++\VCPKG\INSTALLED\X86-WINDOWS\LIB\SDL2.LIB
T:\DEVELOPMENT\C++\VCPKG\INSTALLED\X86-WINDOWS\LIB\SIOCLIENT.LIB
T:\DEVELOPMENT\C++\VCPKG\INSTALLED\X86-WINDOWS\LIB\SIOCLIENT_TLS.LIB
T:\DEVELOPMENT\C++\VCPKG\INSTALLED\X86-WINDOWS\LIB\SSLEAY32.LIB
T:\DEVELOPMENT\C++\VCPKG\INSTALLED\X86-WINDOWS\LIB\WEBSOCKETS.LIB
T:\DEVELOPMENT\C++\VCPKG\INSTALLED\X86-WINDOWS\LIB\ZLIB.LIB
T:\DEVELOPMENT\C++\VCPKG\INSTALLED\X86-WINDOWS\LIB\ZSTD.LIB
T:\DEVELOPMENT\C++\MOVIE\MOVIE\RELEASE\MOVIE.OBJ
T:\DEVELOPMENT\C++\MOVIE\MOVIE\RELEASE\PCH.OBJ
C:\WINDOWS\GLOBALIZATION\SORTING\SORTDEFAULT.NLS
C:\PROGRAM FILES (X86)\MICROSOFT VISUAL STUDIO\2017\COMMUNITY\VC\TOOLS\MSVC\14.16.27023\BIN\HOSTX86\X86\C2.DLL
C:\PROGRAM FILES (X86)\MICROSOFT VISUAL STUDIO\2017\COMMUNITY\VC\TOOLS\MSVC\14.16.27023\LIB\X86\MSVCPRT.LIB
C:\PROGRAM FILES (X86)\MICROSOFT VISUAL STUDIO\2017\COMMUNITY\VC\TOOLS\MSVC\14.16.27023\LIB\X86\MSVCRT.LIB
C:\PROGRAM FILES (X86)\MICROSOFT VISUAL STUDIO\2017\COMMUNITY\VC\TOOLS\MSVC\14.16.27023\LIB\X86\OLDNAMES.LIB
C:\PROGRAM FILES (X86)\MICROSOFT VISUAL STUDIO\2017\COMMUNITY\VC\TOOLS\MSVC\14.16.27023\LIB\X86\VCRUNTIME.LIB
C:\PROGRAM FILES (X86)\WINDOWS KITS\10\LIB\10.0.18362.0\UCRT\X86\UCRT.LIB
C:\PROGRAM FILES (X86)\MICROSOFT VISUAL STUDIO\2017\COMMUNITY\VC\TOOLS\MSVC\14.16.27023\BIN\HOSTX86\X86\1046\LINKUI.DLL
C:\PROGRAM FILES (X86)\WINDOWS KITS\10\BIN\10.0.18362.0\X86\RC.EXE
C:\PROGRAM FILES (X86)\MICROSOFT VISUAL STUDIO\2017\COMMUNITY\VC\TOOLS\MSVC\14.16.27023\BIN\HOSTX86\X86\CVTRES.EXE
